engine speed [1/min] , torque [Nm] , massflow fuel 1 [g/h] , massflow fuel 2 [g/h] , WHR mechanical power [W]
600.01               , 0.01        , 767.01                , 76.70                 , 2000.00
600.01               , 89.91       , 936.44                , 93.64                 , 2000.00
600.01               , 179.81      , 1768.68               , 176.86                , 2000.00
600.01               , 269.71      , 2909.28               , 290.92                , 2000.00
600.01               , 359.61      , 4168.49               , 416.84                , 2000.00
600.01               , 449.51      , 5390.11               , 539.01                , 2000.00
600.01               , 539.41      , 6629.59               , 662.95                , 2000.00
600.01               , 586.01      , 7422.71               , 742.27                , 2000.00
818.01               , 0.01        , 951.01                , 95.10                 , 2000.00
818.01               , 89.91       , 1189.27               , 118.92                , 2000.00
818.01               , 179.81      , 2335.40               , 233.54                , 2000.00
818.01               , 269.71      , 3700.35               , 370.03                , 2000.00
818.01               , 359.61      , 5306.41               , 530.64                , 2000.00
818.01               , 449.51      , 6896.28               , 689.62                , 2000.00
818.01               , 539.41      , 8475.49               , 847.54                , 2000.00
818.01               , 629.31      , 9991.34               , 999.13                , 2000.00
818.01               , 719.21      , 11863.69              , 1186.36               , 2000.00
818.01               , 766.53      , 12850.76              , 1285.07               , 2000.00
1037.01              , 0.01        , 1467.01               , 146.70                , 2000.00
1037.01              , 89.91       , 1739.60               , 173.96                , 2000.00
1037.01              , 179.81      , 3119.24               , 311.92                , 2000.00
1037.01              , 269.71      , 5357.82               , 535.78                , 2000.00
1037.01              , 359.61      , 7696.12               , 769.61                , 2000.00
1037.01              , 449.51      , 10072.10              , 1007.21               , 2000.00
1037.01              , 539.41      , 12483.82              , 1248.38               , 2000.00
1037.01              , 629.31      , 14883.36              , 1488.33               , 2000.00
1037.01              , 719.21      , 17179.54              , 1717.95               , 2000.00
1037.01              , 809.11      , 19586.13              , 1958.61               , 2000.00
1037.01              , 885.97      , 21994.12              , 2199.41               , 2000.00
1255.01              , 0.01        , 1684.01               , 168.40                , 2000.00
1255.01              , 89.91       , 1960.35               , 196.03                , 2000.00
1255.01              , 179.81      , 3375.95               , 337.59                , 2000.00
1255.01              , 269.71      , 5821.42               , 582.14                , 2000.00
1255.01              , 359.61      , 8358.56               , 835.85                , 2000.00
1255.01              , 449.51      , 10915.68              , 1091.56               , 2000.00
1255.01              , 539.41      , 13499.78              , 1349.97               , 2000.00
1255.01              , 629.31      , 16026.46              , 1602.64               , 2000.00
1255.01              , 719.21      , 18574.38              , 1857.43               , 2000.00
1255.01              , 809.11      , 21150.94              , 2115.09               , 2000.00
1255.01              , 899.01      , 23779.89              , 2377.98               , 2000.00
1473.01              , 0.01        , 2167.01               , 216.70                , 2000.00
1473.01              , 89.91       , 2473.76               , 247.37                , 2000.00
1473.01              , 179.81      , 4047.32               , 404.73                , 2000.00
1473.01              , 269.71      , 6797.34               , 679.73                , 2000.00
1473.01              , 359.61      , 9710.97               , 971.09                , 2000.00
1473.01              , 449.51      , 12646.75              , 1264.67               , 2000.00
1473.01              , 539.41      , 15517.45              , 1551.74               , 2000.00
1473.01              , 629.31      , 18390.62              , 1839.06               , 2000.00
1473.01              , 719.21      , 21435.54              , 2143.55               , 2000.00
1473.01              , 809.11      , 24453.96              , 2445.39               , 2000.00
1473.01              , 899.01      , 27363.01              , 2736.30               , 2000.00
1710.01              , 0.01        , 2640.77               , 264.07                , 2000.00
1710.01              , 89.91       , 2971.59               , 297.15                , 2000.00
1710.01              , 179.81      , 4680.40               , 468.04                , 2000.00
1710.01              , 269.71      , 7778.80               , 777.88                , 2000.00
1710.01              , 359.61      , 11095.48              , 1109.54               , 2000.00
1710.01              , 449.51      , 14419.26              , 1441.92               , 2000.00
1710.01              , 539.41      , 17734.17              , 1773.41               , 2000.00
1710.01              , 629.31      , 21042.08              , 2104.20               , 2000.00
1710.01              , 719.21      , 24357.19              , 2435.71               , 2000.00
1710.01              , 809.11      , 27712.37              , 2771.23               , 2000.00
1710.01              , 889.11      , 30778.25              , 3077.82               , 2000.00
1888.01              , 0.01        , 2889.53               , 288.95                , 2000.00
1888.01              , 89.91       , 3243.88               , 324.38                , 2000.00
1888.01              , 179.81      , 5061.54               , 506.15                , 2000.00
1888.01              , 269.71      , 8260.80               , 826.08                , 2000.00
1888.01              , 359.61      , 11762.26              , 1176.22               , 2000.00
1888.01              , 449.51      , 15287.21              , 1528.72               , 2000.00
1888.01              , 539.41      , 18802.43              , 1880.24               , 2000.00
1888.01              , 629.31      , 22238.11              , 2223.81               , 2000.00
1888.01              , 719.21      , 25741.67              , 2574.16               , 2000.00
1888.01              , 809.11      , 29403.99              , 2940.39               , 2000.00
1888.01              , 868.69      , 32180.82              , 3218.08               , 2000.00
2065.01              , 0.01        , 3191.14               , 319.11                , 2000.00
2065.01              , 89.91       , 3570.91               , 357.09                , 2000.00
2065.01              , 179.81      , 5506.87               , 550.68                , 2000.00
2065.01              , 269.71      , 8819.39               , 881.93                , 2000.00
2065.01              , 359.61      , 12500.72              , 1250.07               , 2000.00
2065.01              , 449.51      , 16190.38              , 1619.03               , 2000.00
2065.01              , 539.41      , 19937.15              , 1993.71               , 2000.00
2065.01              , 629.31      , 23587.89              , 2358.78               , 2000.00
2065.01              , 719.21      , 27264.53              , 2726.45               , 2000.00
2065.01              , 834.81      , 32750.46              , 3275.04               , 2000.00
2243.01              , 0.01        , 4067.44               , 406.74                , 2000.00
2243.01              , 89.91       , 4481.29               , 448.12                , 2000.00
2243.01              , 179.81      , 6597.25               , 659.72                , 2000.00
2243.01              , 269.71      , 10286.21              , 1028.62               , 2000.00
2243.01              , 359.61      , 14445.45              , 1444.54               , 2000.00
2243.01              , 449.51      , 18623.17              , 1862.31               , 2000.00
2243.01              , 539.41      , 22803.66              , 2280.36               , 2000.00
2243.01              , 629.31      , 27109.88              , 2710.98               , 2000.00
2243.01              , 719.21      , 32391.34              , 3239.13               , 2000.00
2243.01              , 781.80      , 38013.72              , 3801.37               , 2000.00
2420.01              , 0.01        , 4247.27               , 424.72                , 2000.00
2420.01              , 89.91       , 4664.35               , 466.43                , 2000.00
2420.01              , 179.81      , 6803.78               , 680.37                , 2000.00
2420.01              , 269.71      , 10589.21              , 1058.92               , 2000.00
2420.01              , 359.61      , 14832.97              , 1483.29               , 2000.00
2420.01              , 449.51      , 19123.66              , 1912.36               , 2000.00
2420.01              , 539.41      , 23400.45              , 2340.04               , 2000.00
2420.01              , 629.31      , 27800.49              , 2780.04               , 2000.00
2420.01              , 692.81      , 32593.53              , 3259.35               , 2000.00
